%rename(Equals) operator ==;
%rename(CopyData) operator =;
%rename(OpLess) operator <;
%rename(OpGreater) operator >;
%rename(OpArray) operator [];
%rename(OpLessEquals) operator <=;
%rename(OpGreaterEquals) operator >=;
%rename(OpNotEqual) operator !=;
%rename(OpPlus) operator +;
%rename(OpPlusPlus) operator ++;
%rename(OpMinusMinus) operator --;
%rename(OpMinus) operator -;
%rename(OpDivide) operator /;
%rename(OpMultiply) operator *;