%template(write) Jinra::BitStream::write <const char *>;
%template(write) Jinra::BitStream::write <bool>;
%template(write) Jinra::BitStream::write <unsigned char>;
%template(write) Jinra::BitStream::write <char>;
%template(write) Jinra::BitStream::write <short>;
%template(write) Jinra::BitStream::write <unsigned short>;
%template(write) Jinra::BitStream::write <long>;
%template(write) Jinra::BitStream::write <long long>;
%template(write) Jinra::BitStream::write <float>;
%template(write) Jinra::BitStream::write <NetGUID>;
%template(write) Jinra::BitStream::write <uint24_t>;

%template(read) Jinra::BitStream::read <bool>;
%template(read) Jinra::BitStream::read <unsigned char>;
%template(read) Jinra::BitStream::read <short>;
%template(read) Jinra::BitStream::read <unsigned short>;
%template(read) Jinra::BitStream::read <long>;
%template(read) Jinra::BitStream::read <long long>;
%template(read) Jinra::BitStream::read <float>;
%template(read) Jinra::BitStream::read <NetGUID>;
%template(read) Jinra::BitStream::read <uint24_t>;